…
    ## Number of detected outliers = 20 
    ## Number of observations = 200 
    ## Time = 0.413 
    ## Convergence = TRUE 
    ## MSE = 0.7681321 
    ## Bias corrected MSE = 0.7573429 
    ## First optimal bandwidth = 1.767722 
    ## Pooled optimal bandwidth = 0.4234177

``` r
sine_fit$fit_df
```

    ## # A tibble: 200 x 8
    ##             x          y      y_adj outlier       fit  bias_fit    nr_fit
    ##         <dbl>      <dbl>      <dbl>   <lgl>     <dbl>     <dbl>     <dbl>
    ##  1 0.00000000 -0.5604756 -0.5604756   FALSE 0.4007002 0.3220376 0.6964223
    ##  2 0.03157380 -0.1986089 -0.1986089   FALSE 0.4043660 0.3250921 0.6974081
    ##  3 0.06314759  1.6218139  1.6218139   FALSE 0.4082616 0.3283361 0.6983727
    ##  4 0.09472139  0.1650882  0.1650882   FALSE 0.4124294 0.3318398 0.6993156
    ##  5 0.12629518  0.2552474  0.2552474   FALSE 0.4169148 0.3356803 0.7002363
    ##  6 0.15786898  1.8722790  1.8722790   FALSE 0.4217665 0.3399408 0.7011342
    ##  7 0.18944277  0.6492279  0.6492279   FALSE 0.4270360 0.3447108 0.7020089
    ##  8 0.22101657 -1.0458397 -1.0458397   FALSE 0.4327769 0.3500846 0.7028597
    ##  9 0.25259036 -0.4369399 -0.4369399   FALSE 0.4390444 0.3561608 0.7036863
    ## 10 0.28416416 -0.1653067 -0.1653067   FALSE 0.4458945 0.3630401 0.7044880
    ## # ... with 190 more rows, and 1 more variables: nr_bias_fit <dbl>
…
